\contentsline {chapter}{\numberline {1}An Introduction}{1}
\contentsline {section}{\numberline {1.1}Introduction}{1}
\contentsline {section}{\numberline {1.2}the old way}{1}
\contentsline {section}{\numberline {1.3}Integrated Circuits}{2}
\contentsline {section}{\numberline {1.4}MicroControllers}{2}
\contentsline {chapter}{\numberline {2}The Second Chapter}{3}
