\relax 
\@writefile{toc}{\contentsline {chapter}{\numberline {1}An Introduction}{1}}
\@writefile{lof}{\addvspace {10\p@ }}
\@writefile{lot}{\addvspace {10\p@ }}
\@writefile{toc}{\contentsline {section}{\numberline {1.1}Introduction}{1}}
\@writefile{toc}{\contentsline {section}{\numberline {1.2}the old way}{1}}
\@writefile{toc}{\contentsline {section}{\numberline {1.3}Integrated Circuits}{2}}
\@writefile{toc}{\contentsline {section}{\numberline {1.4}MicroControllers}{2}}
\@setckpt{./TeX_files/chapter01}{
\setcounter{page}{3}
\setcounter{equation}{0}
\setcounter{enumi}{0}
\setcounter{enumii}{0}
\setcounter{enumiii}{0}
\setcounter{enumiv}{0}
\setcounter{footnote}{0}
\setcounter{mpfootnote}{0}
\setcounter{part}{0}
\setcounter{chapter}{1}
\setcounter{section}{4}
\setcounter{subsection}{0}
\setcounter{subsubsection}{0}
\setcounter{paragraph}{0}
\setcounter{subparagraph}{0}
\setcounter{figure}{0}
\setcounter{table}{0}
}
